simulation/qsim/Mux_demux.msim.vcd
$comment
	File created using the following command:
		vcd file Mux_demux.msim.vcd -direction
$end
$date
	Thu Nov 30 14:33:10 2023
$end
$version
	ModelSim Version 2020.1
$end
$timescale
	1ps
$end

$scope module Mux8x1_6bits_vlg_vec_tst $end
$var reg 6 ! A [5:0] $end
$var reg 6 " B [5:0] $end
$var reg 6 # C [5:0] $end
$var reg 6 $ D [5:0] $end
$var reg 6 % E [5:0] $end
$var reg 6 & F [5:0] $end
$var reg 6 ' G [5:0] $end
$var reg 6 ( H [5:0] $end
$var reg 3 ) S [2:0] $end
$var wire 1 * SAIDA [5] $end
$var wire 1 + SAIDA [4] $end
$var wire 1 , SAIDA [3] $end
$var wire 1 - SAIDA [2] $end
$var wire 1 . SAIDA [1] $end
$var wire 1 / SAIDA [0] $end

$scope module i1 $end
$var wire 1 0 gnd $end
$var wire 1 1 vcc $end
$var wire 1 2 unknown $end
$var tri1 1 3 devclrn $end
$var tri1 1 4 devpor $end
$var tri1 1 5 devoe $end
$var wire 1 6 SAIDA[5]~output_o $end
$var wire 1 7 SAIDA[4]~output_o $end
$var wire 1 8 SAIDA[3]~output_o $end
$var wire 1 9 SAIDA[2]~output_o $end
$var wire 1 : SAIDA[1]~output_o $end
$var wire 1 ; SAIDA[0]~output_o $end
$var wire 1 < S[2]~input_o $end
$var wire 1 = S[1]~input_o $end
$var wire 1 > inst4|inst11~0_combout $end
$var wire 1 ? B[5]~input_o $end
$var wire 1 @ A[5]~input_o $end
$var wire 1 A S[0]~input_o $end
$var wire 1 B inst4|inst11~1_combout $end
$var wire 1 C inst4|inst11~2_combout $end
$var wire 1 D D[5]~input_o $end
$var wire 1 E C[5]~input_o $end
$var wire 1 F inst4|inst11~3_combout $end
$var wire 1 G inst4|inst11~4_combout $end
$var wire 1 H F[5]~input_o $end
$var wire 1 I E[5]~input_o $end
$var wire 1 J inst4|inst11~5_combout $end
$var wire 1 K inst4|inst11~6_combout $end
$var wire 1 L H[5]~input_o $end
$var wire 1 M G[5]~input_o $end
$var wire 1 N inst4|inst11~7_combout $end
$var wire 1 O inst4|inst11~8_combout $end
$var wire 1 P B[4]~input_o $end
$var wire 1 Q A[4]~input_o $end
$var wire 1 R inst5|inst11~0_combout $end
$var wire 1 S D[4]~input_o $end
$var wire 1 T C[4]~input_o $end
$var wire 1 U inst5|inst11~1_combout $end
$var wire 1 V F[4]~input_o $end
$var wire 1 W E[4]~input_o $end
$var wire 1 X inst5|inst11~2_combout $end
$var wire 1 Y H[4]~input_o $end
$var wire 1 Z G[4]~input_o $end
$var wire 1 [ inst5|inst11~3_combout $end
$var wire 1 \ inst5|inst11~4_combout $end
$var wire 1 ] B[3]~input_o $end
$var wire 1 ^ A[3]~input_o $end
$var wire 1 _ inst2|inst11~0_combout $end
$var wire 1 ` D[3]~input_o $end
$var wire 1 a C[3]~input_o $end
$var wire 1 b inst2|inst11~1_combout $end
$var wire 1 c F[3]~input_o $end
$var wire 1 d E[3]~input_o $end
$var wire 1 e inst2|inst11~2_combout $end
$var wire 1 f H[3]~input_o $end
$var wire 1 g G[3]~input_o $end
$var wire 1 h inst2|inst11~3_combout $end
$var wire 1 i inst2|inst11~4_combout $end
$var wire 1 j B[2]~input_o $end
$var wire 1 k A[2]~input_o $end
$var wire 1 l inst3|inst11~0_combout $end
$var wire 1 m D[2]~input_o $end
$var wire 1 n C[2]~input_o $end
$var wire 1 o inst3|inst11~1_combout $end
$var wire 1 p F[2]~input_o $end
$var wire 1 q E[2]~input_o $end
$var wire 1 r inst3|inst11~2_combout $end
$var wire 1 s H[2]~input_o $end
$var wire 1 t G[2]~input_o $end
$var wire 1 u inst3|inst11~3_combout $end
$var wire 1 v inst3|inst11~4_combout $end
$var wire 1 w B[1]~input_o $end
$var wire 1 x A[1]~input_o $end
$var wire 1 y inst1|inst11~0_combout $end
$var wire 1 z D[1]~input_o $end
$var wire 1 { C[1]~input_o $end
$var wire 1 | inst1|inst11~1_combout $end
$var wire 1 } F[1]~input_o $end
$var wire 1 ~ E[1]~input_o $end
$var wire 1 !! inst1|inst11~2_combout $end
$var wire 1 "! H[1]~input_o $end
$var wire 1 #! G[1]~input_o $end
$var wire 1 $! inst1|inst11~3_combout $end
$var wire 1 %! inst1|inst11~4_combout $end
$var wire 1 &! B[0]~input_o $end
$var wire 1 '! A[0]~input_o $end
$var wire 1 (! inst|inst11~0_combout $end
$var wire 1 )! D[0]~input_o $end
$var wire 1 *! C[0]~input_o $end
$var wire 1 +! inst|inst11~1_combout $end
$var wire 1 ,! F[0]~input_o $end
$var wire 1 -! E[0]~input_o $end
$var wire 1 .! inst|inst11~2_combout $end
$var wire 1 /! H[0]~input_o $end
$var wire 1 0! G[0]~input_o $end
$var wire 1 1! inst|inst11~3_combout $end
$var wire 1 2! inst|inst11~4_combout $end
$upscope $end
$upscope $end
$enddefinitions $end
#0
$dumpvars
b111111 !
b0 "
b111111 #
b111111 $
b111111 %
b0 &
b111111 '
b111111 (
b0 )
1/
1.
1-
1,
1+
1*
00
11
x2
13
14
15
16
17
18
19
1:
1;
0<
0=
1>
0?
1@
0A
1B
0C
1D
1E
0F
0G
0H
1I
0J
0K
1L
1M
0N
1O
0P
1Q
1R
1S
1T
0U
0V
1W
0X
1Y
1Z
0[
1\
0]
1^
1_
1`
1a
0b
0c
1d
0e
1f
1g
0h
1i
0j
1k
1l
1m
1n
0o
0p
1q
0r
1s
1t
0u
1v
0w
1x
1y
1z
1{
0|
0}
1~
0!!
1"!
1#!
0$!
1%!
0&!
1'!
1(!
1)!
1*!
0+!
0,!
1-!
0.!
1/!
10!
01!
12!
$end
#60000
b1 )
1A
0(!
0y
0l
0_
0R
0B
02!
0%!
0v
0i
0\
0O
06
07
08
09
0:
0;
0/
0.
0-
0,
0+
0*
#120000
b11 )
b10 )
0A
1=
1(!
1y
1l
1_
1R
1B
1C
0>
1+!
1|
1o
1b
1U
1F
0(!
0y
0l
0_
0R
0B
12!
1%!
1v
1i
1\
1O
16
17
18
19
1:
1;
1/
1.
1-
1,
1+
1*
#180000
b11 )
1A
#240000
b111 )
b101 )
b100 )
0A
0=
1<
1G
0C
1.!
1!!
1r
1e
1X
1J
0+!
0|
0o
0b
0U
0F
#300000
b101 )
1A
0.!
0!!
0r
0e
0X
0J
02!
0%!
0v
0i
0\
0O
06
07
08
09
0:
0;
0/
0.
0-
0,
0+
0*
#360000
b111 )
b110 )
0A
1=
1.!
1!!
1r
1e
1X
1J
1K
0G
11!
1$!
1u
1h
1[
1N
0.!
0!!
0r
0e
0X
0J
12!
1%!
1v
1i
1\
1O
16
17
18
19
1:
1;
1/
1.
1-
1,
1+
1*
#420000
b111 )
1A
#480000
b11 )
b1 )
b0 )
0A
0=
0<
0K
1>
01!
0$!
0u
0h
0[
0N
1(!
1y
1l
1_
1R
1B
#540000
b1 )
1A
0(!
0y
0l
0_
0R
0B
02!
0%!
0v
0i
0\
0O
06
07
08
09
0:
0;
0/
0.
0-
0,
0+
0*
#600000
b11 )
b10 )
0A
1=
1(!
1y
1l
1_
1R
1B
1C
0>
1+!
1|
1o
1b
1U
1F
0(!
0y
0l
0_
0R
0B
12!
1%!
1v
1i
1\
1O
16
17
18
19
1:
1;
1/
1.
1-
1,
1+
1*
#660000
b11 )
1A
#720000
b111 )
b101 )
b100 )
0A
0=
1<
1G
0C
1.!
1!!
1r
1e
1X
1J
0+!
0|
0o
0b
0U
0F
#780000
b101 )
1A
0.!
0!!
0r
0e
0X
0J
02!
0%!
0v
0i
0\
0O
06
07
08
09
0:
0;
0/
0.
0-
0,
0+
0*
#840000
b111 )
b110 )
0A
1=
1.!
1!!
1r
1e
1X
1J
1K
0G
11!
1$!
1u
1h
1[
1N
0.!
0!!
0r
0e
0X
0J
12!
1%!
1v
1i
1\
1O
16
17
18
19
1:
1;
1/
1.
1-
1,
1+
1*
#900000
b111 )
1A
#960000
b11 )
b1 )
b0 )
0A
0=
0<
0K
1>
01!
0$!
0u
0h
0[
0N
1(!
1y
1l
1_
1R
1B
